{"dir":"myApp",
"modulo":"combo_multiple",
"arr":[
    {"dir":"appOrg", "typ":"css" , "arc":"tpl"            },
    {"dir":"appOrg", "typ":"css" , "arc":"form"           },
    {"dir":"appOrg", "typ":"css" , "arc":"menu"           },
    {"dir":"appOrg", "typ":"css" , "arc":"calendar"       },
    {"dir":"appOrg", "typ":"css" , "arc":"solapador"      },
    {"dir":"appOrg", "typ":"css" , "arc":"validateData"   },
    {"dir":"appOrg", "typ":"css" , "arc":"jqry_table"     },
    {"dir":"appOrg", "typ":"js"  , "arc":"app"            },
    {"dir":"appOrg", "typ":"js"  , "arc":"validar"        },
    {"dir":"FDSoil", "typ":"js"  , "arc":"ajax"           },
    {"dir":"FDSoil", "typ":"js"  , "arc":"numero"         },
    {"dir":"FDSoil", "typ":"js"  , "arc":"combo"          },
    {"dir":"FDSoil", "typ":"js"  , "arc":"menu"           },
    {"dir":"FDSoil", "typ":"js"  , "arc":"effect"         },
    {"dir":"FDSoil", "typ":"js"  , "arc":"relocate"       },
    {"dir":"FDSoil", "typ":"js"  , "arc":"validar"        },
    {"dir":"FDSoil", "typ":"js"  , "arc":"validateData"   },
    {"dir":"FDSoil", "typ":"js"  , "arc":"formatData"     },
    {"dir":"FDSoil", "typ":"js"  , "arc":"constraintsData"}
]}
